…
All the plotting functions call
[`validate_gwas()`](https://loukesio.github.io/gwasplot/reference/validate_gwas.md)
internally, so you can pass raw data directly. Two simulated datasets
ship with the package:

``` r

data(gwas_example)  # single trait, 22 chromosomes
data(gwas_multi)    # three traits: height, bmi, glucose
gwas_example
#> # A tibble: 5,940 × 5
#>    SNP   CHR       POS      P gene     
#>    <chr> <fct>   <dbl>  <dbl> <chr>    
#>  1 rs1   1       74399 0.295  GENE01399
#>  2 rs2   1      180831 0.0955 GENE01831
#>  3 rs3   1     1147122 0.165  GENE01122
#>  4 rs4   1     1321963 0.870  GENE01963
#>  5 rs5   1     1547422 0.753  GENE01422
#>  6 rs6   1     1574771 0.815  GENE01771
#>  7 rs7   1     2234627 0.462  GENE01627
#>  8 rs8   1     2374338 0.740  GENE01338
#>  9 rs9   1     2533357 0.726  GENE01357
#> 10 rs10  1     2628801 0.765  GENE01801
#> # ℹ 5,930 more rows
```
…
